Project 2: Data Mining, Classification, Prediction
…
library(tidyverse)
# read your datasets in here, e.g., with read_csv() if your
# dataset needs tidying, do so here any other code here

# write.csv( file='data3.csv')
data3 <- read_csv("data3.csv")
data3

## # A tibble: 50 x 12
##       X1 States education income young urban Murder Assault  Rape UrbanPercent
##    <dbl> <chr>      <dbl>  <dbl> <dbl> <dbl>  <dbl>   <dbl> <dbl>        <dbl>
##  1     1 Alaba       112   2337  362.   584   13.2     236  21.2           58
##  2     2 Alaska       372   4146  440.   484   10       263  44.5           48
##  3     3 Arizo       207   3027  388.   796    8.1     294  31             80
##  4     4 Arkan       134   2322  352.   500    8.8     190  19.5           50
##  5     5 Calif       273   3968  348.   909    9       276  40.6           91
##  6     6 Color       192   3340  358.   785    7.9     204  38.7           78
##  7     7 Conne       193   4256  341    774    3.3     110  11.1           77
##  8     8 Delaw       248   3795  376.   722    5.9     238  15.8           72
##  9     9 Flori       191   3191  336    805   15.4     335  31.9           80
## 10    10 Georg       156   2781  371.   603   17.4     211  25.8           60
## #  with 40 more rows, and 2 more variables: Total_Arrests <dbl>,
## #   high_low_UrbanPercent <chr>

data3 <- data3 %>% select(-1)
data3

## # A tibble: 50 x 11
##    States education income young urban Murder Assault  Rape UrbanPercent
##    <chr>      <dbl>  <dbl> <dbl> <dbl>  <dbl>   <dbl> <dbl>        <dbl>
##  1 Alaba       112   2337  362.   584   13.2     236  21.2           58
##  2 Alaska       372   4146  440.   484   10       263  44.5           48
##  3 Arizo       207   3027  388.   796    8.1     294  31             80
##  4 Arkan       134   2322  352.   500    8.8     190  19.5           50
##  5 Calif       273   3968  348.   909    9       276  40.6           91
##  6 Color       192   3340  358.   785    7.9     204  38.7           78
##  7 Conne       193   4256  341    774    3.3     110  11.1           77
##  8 Delaw       248   3795  376.   722    5.9     238  15.8           72
##  9 Flori       191   3191  336    805   15.4     335  31.9           80
## 10 Georg       156   2781  371.   603   17.4     211  25.8           60
## #  with 40 more rows, and 2 more variables: Total_Arrests <dbl>,
## #   high_low_UrbanPercent <chr>

Cluster Analysis

library(cluster)

Data3 <- data3 %>% select(-1)
Data3 <- Data3 %>% select(-10)
Data3

## # A tibble: 50 x 9
##    education income young urban Murder Assault  Rape UrbanPercent Total_Arrests
##        <dbl>  <dbl> <dbl> <dbl>  <dbl>   <dbl> <dbl>        <dbl>         <dbl>
##  1       112   2337  362.   584   13.2     236  21.2           58          270.
##  2       372   4146  440.   484   10       263  44.5           48          318.
##  3       207   3027  388.   796    8.1     294  31             80          333.
##  4       134   2322  352.   500    8.8     190  19.5           50          218.
##  5       273   3968  348.   909    9       276  40.6           91          326.
##  6       192   3340  358.   785    7.9     204  38.7           78          251.
##  7       193   4256  341    774    3.3     110  11.1           77          124.
##  8       248   3795  376.   722    5.9     238  15.8           72          260.
##  9       191   3191  336    805   15.4     335  31.9           80          382.
## 10       156   2781  371.   603   17.4     211  25.8           60          254.
## #  with 40 more rows
…
Based on the first line graph, the best number of clusters with PAM based on silhouette width is 2. The overall average silhouette width after running PAM analysis is 0.51585 which shows that a decent structure has been found with ID 12 (Idaho) and ID 35 (Ohio) as the medoids. Idaho and Ohio are the most similar on Assault and Education and most different on income. At first I tested out clustering with only three measurements, but at the end I visualized all pairwise combinations of all eight measurements.

Dimensionality Reduction with PCA

data31 <- data3 %>% select(-States)
data31 <- data31 %>% select(-high_low_UrbanPercent)
data31

## # A tibble: 50 x 9
##    education income young urban Murder Assault  Rape UrbanPercent Total_Arrests
##        <dbl>  <dbl> <dbl> <dbl>  <dbl>   <dbl> <dbl>        <dbl>         <dbl>
##  1       112   2337  362.   584   13.2     236  21.2           58          270.
##  2       372   4146  440.   484   10       263  44.5           48          318.
##  3       207   3027  388.   796    8.1     294  31             80          333.
##  4       134   2322  352.   500    8.8     190  19.5           50          218.
##  5       273   3968  348.   909    9       276  40.6           91          326.
##  6       192   3340  358.   785    7.9     204  38.7           78          251.
##  7       193   4256  341    774    3.3     110  11.1           77          124.
##  8       248   3795  376.   722    5.9     238  15.8           72          260.
##  9       191   3191  336    805   15.4     335  31.9           80          382.
## 10       156   2781  371.   603   17.4     211  25.8           60          254.
## #  with 40 more rows
…
PC1 is the general strength axis: all loadings/coefs have similar sign and magnitude. The higher a state scores on PC1, all eight varaibles will be high. PC2 is an Income vs.Murder axis. Higher scores on PC2 mean high income and low Murder rate. Lower scores on PC2 mean the opposite: low income but high Murder rate. PC3 is an Education vs.UrbanPercent axis. Higher scores on PC3 mean high education and low UrbanPercent. Lower scores mean low education and high UrbanPercent. The total variance of the scaled data was 8.82, so total variance of PCs must be 8.82. The proportion of variance explained by PC1 is 0.4301744 and the proportion of variance explained by PC2 is 0.2840195. Therefore, the total variance of in the dataset explained by the PC1 is 3.794137864 and total variance explained by PC2 is 2.505052068.

Linear Classifier

# The response variable for binary classification,
# high_low_UrbanPercent, is coded as a factor type: 'high' or
# 'low.' I explicitly converted it to numeric so 'high' is 1
# and 'low' is 0.
data32 <- data3 %>% mutate(high_low_UrbanPercent = ifelse(high_low_UrbanPercent == 
    "high", 1, 0))
data32

## # A tibble: 50 x 11
##    States education income young urban Murder Assault  Rape UrbanPercent
##    <chr>      <dbl>  <dbl> <dbl> <dbl>  <dbl>   <dbl> <dbl>        <dbl>
##  1 Alaba       112   2337  362.   584   13.2     236  21.2           58
##  2 Alaska       372   4146  440.   484   10       263  44.5           48
##  3 Arizo       207   3027  388.   796    8.1     294  31             80
##  4 Arkan       134   2322  352.   500    8.8     190  19.5           50
##  5 Calif       273   3968  348.   909    9       276  40.6           91
##  6 Color       192   3340  358.   785    7.9     204  38.7           78
##  7 Conne       193   4256  341    774    3.3     110  11.1           77
##  8 Delaw       248   3795  376.   722    5.9     238  15.8           72
##  9 Flori       191   3191  336    805   15.4     335  31.9           80
## 10 Georg       156   2781  371.   603   17.4     211  25.8           60
## #  with 40 more rows, and 2 more variables: Total_Arrests <dbl>,
## #   high_low_UrbanPercent <dbl>
…
## [1] "----------------------------------------------------------"

table(truth = data32$high_low_UrbanPercent, prediction = probs > 
    0.5)

##      prediction
## truth FALSE TRUE
##     0    17    0
##     1     0   33

Data3 <- data32 %>% select(-1)
Data3

## # A tibble: 50 x 10
##    education income young urban Murder Assault  Rape UrbanPercent Total_Arrests
##        <dbl>  <dbl> <dbl> <dbl>  <dbl>   <dbl> <dbl>        <dbl>         <dbl>
##  1       112   2337  362.   584   13.2     236  21.2           58          270.
##  2       372   4146  440.   484   10       263  44.5           48          318.
##  3       207   3027  388.   796    8.1     294  31             80          333.
##  4       134   2322  352.   500    8.8     190  19.5           50          218.
##  5       273   3968  348.   909    9       276  40.6           91          326.
##  6       192   3340  358.   785    7.9     204  38.7           78          251.
##  7       193   4256  341    774    3.3     110  11.1           77          124.
##  8       248   3795  376.   722    5.9     238  15.8           72          260.
##  9       191   3191  336    805   15.4     335  31.9           80          382.
## 10       156   2781  371.   603   17.4     211  25.8           60          254.
## #  with 40 more rows, and 1 more variable: high_low_UrbanPercent <dbl>

y <- Data3$high_low_UrbanPercent
y <- factor(y, levels = c("high", "low"))
x <- Data3$income

data33 <- Data3 %>% mutate(y = high_low_UrbanPercent)
data33$high_low_UrbanPercent <- NULL  #remove this variable for now
data33

## # A tibble: 50 x 10
##    education income young urban Murder Assault  Rape UrbanPercent Total_Arrests
##        <dbl>  <dbl> <dbl> <dbl>  <dbl>   <dbl> <dbl>        <dbl>         <dbl>
##  1       112   2337  362.   584   13.2     236  21.2           58          270.
##  2       372   4146  440.   484   10       263  44.5           48          318.
##  3       207   3027  388.   796    8.1     294  31             80          333.
##  4       134   2322  352.   500    8.8     190  19.5           50          218.
##  5       273   3968  348.   909    9       276  40.6           91          326.
##  6       192   3340  358.   785    7.9     204  38.7           78          251.
##  7       193   4256  341    774    3.3     110  11.1           77          124.
##  8       248   3795  376.   722    5.9     238  15.8           72          260.
##  9       191   3191  336    805   15.4     335  31.9           80          382.
## 10       156   2781  371.   603   17.4     211  25.8           60          254.
## #  with 40 more rows, and 1 more variable: y <dbl>
…
summarize_all(diags, mean)  #average diagnostics across all k folds

##   acc    sens spec     ppv     f1  ba   auc
## 1 0.8 0.90167  NaN 0.83501 0.8442 NaN 0.925

The area under the AUC curve quantifies how well we are predicting overall. The AUC value after running the class_diag function is 0.852, which is a good value. I then performed k-fold CV on this same model. After running the class_diag function to get out-of-sample performance averaged across my k folds, my model predicts new observations per CV AUC very well since the AUC value came out to be 0.925. The goal of cross-validation is to test the models ability to make predictions on new data that was not used to estimate it. Since my model improved in CV, there is no sign of overfitting.

Non-Parametric Classifier

library(caret)

Data3 

## # A tibble: 50 x 10
##    education income young urban Murder Assault  Rape UrbanPercent Total_Arrests
##        <dbl>  <dbl> <dbl> <dbl>  <dbl>   <dbl> <dbl>        <dbl>         <dbl>
##  1       112   2337  362.   584   13.2     236  21.2           58          270.
##  2       372   4146  440.   484   10       263  44.5           48          318.
##  3       207   3027  388.   796    8.1     294  31             80          333.
##  4       134   2322  352.   500    8.8     190  19.5           50          218.
##  5       273   3968  348.   909    9       276  40.6           91          326.
##  6       192   3340  358.   785    7.9     204  38.7           78          251.
##  7       193   4256  341    774    3.3     110  11.1           77          124.
##  8       248   3795  376.   722    5.9     238  15.8           72          260.
##  9       191   3191  336    805   15.4     335  31.9           80          382.
## 10       156   2781  371.   603   17.4     211  25.8           60          254.
## #  with 40 more rows, and 1 more variable: high_low_UrbanPercent <dbl>

Data3 %>% select(1:9) %>% dist() %>% as.matrix %>% #euclidean distances among all datapoints
  as.data.frame %>% rownames_to_column %>% 
  pivot_longer(-1) %>% left_join(select(rownames_to_column(Data3),rowname,high_low_UrbanPercent), by="rowname") %>% 
  group_by(name) %>% slice_min(value, n=5) %>%#for each datapoint, grab the 5 closest points 
  summarize(y_hat=mean(high_low_UrbanPercent)) 

## # A tibble: 50 x 2
##    name  y_hat
##    <chr> <dbl>
##  1 1       0  
##  2 10      0.6
##  3 11      1  
##  4 12      0  
##  5 13      1  
##  6 14      1  
##  7 15      0.6
##  8 16      1  
##  9 17      0  
## 10 18      0.6
## #  with 40 more rows
…
